populationdensity – Tra Tran
…
3

Optionally, to reduce computation time, filter(n_dots > 0) is to skip blocks with zero population.

Output of this stage should be an sf object with polygons and number of dots for each polygon.

SA1_count_shapefile

Simple feature collection with 14987 features and 3 fields (with 1 geometry empty)
Geometry type: MULTIPOLYGON
Dimension:     XY
Bounding box:  xmin: 140.9619 ymin: -38.90962 xmax: 149.9762 ymax: -33.98064
Geodetic CRS:  GCS_GDA2020
# A tibble: 14,987 × 4
   SA1_COD     Person n_dots                                            geometry
   <chr>        <dbl>  <dbl>                                  <MULTIPOLYGON [°]>
 1 20101100101    437      4 (((143.8009 -37.55382, 143.8004 -37.55376, 143.800…
 2 20101100102    183      1 (((143.7977 -37.55071, 143.7978 -37.55075, 143.798…
 3 20101100105    382      3 (((143.8156 -37.5587, 143.8169 -37.55885, 143.8175…
 4 20101100106    584      5 (((143.801 -37.55383, 143.8024 -37.55399, 143.8032…
 5 20101100107    363      3 (((143.8129 -37.55643, 143.813 -37.5561, 143.8132 …
 6 20101100108    792      7 (((143.8089 -37.55476, 143.809 -37.55478, 143.8102…
 7 20101100109    528      5 (((143.8044 -37.55316, 143.8046 -37.55213, 143.804…
 8 20101100110    512      5 (((143.7886 -37.54654, 143.7882 -37.54637, 143.786…
 9 20101100111    371      3 (((143.7923 -37.54826, 143.7922 -37.54849, 143.792…
10 20101100112    424      4 (((143.7918 -37.5514, 143.7917 -37.55106, 143.7916…
# ℹ 14,977 more rows
…
2

Result is converted from a list of points to an sf object with st_sf().

Result should have geometry column representing point locations.

points_sf

Simple feature collection with 57470 features and 1 field
Geometry type: POINT
Dimension:     XY
Bounding box:  xmin: 141.0321 ymin: -38.87474 xmax: 149.7605 ymax: -34.12203
Geodetic CRS:  GCS_GDA2020
# A tibble: 57,470 × 2
     FID             geometry
   <dbl>          <POINT [°]>
 1     0  (143.802 -37.55391)
 2     1  (143.804 -37.55111)
 3     2 (143.8023 -37.54956)
 4     3 (143.8039 -37.55215)
 5     4 (143.7962 -37.55324)
 6     5 (143.8123 -37.56792)
 7     6 (143.8129 -37.56038)
 8     7 (143.8142 -37.56515)
 9     8 (143.8009 -37.55428)
10     9 (143.7993 -37.55614)
# ℹ 57,460 more rows
…
